{
  "project_info": {
    "project_number": "450149962792",
    "firebase_url": "https://admob-app-id-1943614299.firebaseio.com",
    "project_id": "admob-app-id-1943614299",
    "storage_bucket": "admob-app-id-1943614299.appspot.com"
  },
  "client": [
    {
      "client_info": {
        "mobilesdk_app_id": "1:450149962792:android:c389c335d43a6d91",
        "android_client_info": {
          "package_name": "kazuma.saitou.rolling"
        }
      },
      "oauth_client": [
        {
          "client_id": "450149962792-1tebdp8mef4nqtncgqj5fruea6r73kco.apps.googleusercontent.com",
          "client_type": 3
        }
      ],
      "api_key": [
        {
          "current_key": "AIzaSyCgNwK4ICKSIF684lpoj8EbfRrcSiipavg"
        }
      ],
      "services": {
        "analytics_service": {
          "status": 1
        },
        "appinvite_service": {
          "status": 1,
          "other_platform_oauth_client": []
        },
        "ads_service": {
          "status": 2
        }
      }
    }
  ],
  "configuration_version": "1"
}